{
    "uid": "IDF_C_Compiler",
    "course": "IDF",
    "subject": "C",
    "lesson": "Compiler",
    "units": [""],
    "software_ver": "",
    "ksas": [],
    "objectives": [""],
    "workrole": ["Basic Developer"],
    "proficiency": "",
    "etc": 2,
    "creation_date": "",
    "revision_date": "",
    "release_ver": "",
    "labs": {
        "perf_lab": {
            "lab_path": "",
            "headerpath": "",
            "support_files": [""],
            "tests": [
                {
                    "filepath": "",
                    "headerpath": ""
                }
            ],
            "solution": "",
            "dependencies": {
                "libraries": [""],
                "req_software": [""]
            }
        },
        "demo_lab": {
            "lab_path": "",
            "headerpath": "",
            "support_files": [""],
            "solution": "",
            "dependencies": {
                "libraries": [""],
                "req_software": [""]
            }  
        }
    },
    "lesson_files": [""]
}
