{
    "uid": "IDF_C_Switch",
    "TRN_EVL_ID": "IDF",
    "NETWORK": "Commercial",
    "KSATs": [
        ["A0140", "3"]
       
    ],
    "subject": "Switch",
    "lesson": "",
    "objectives": {},
    "workroles": ["basic-dev"],
    "etc": 1,
    "creation_date": "4/16/2020",
    "revision_date": "4/16/2020",
    "revision_number": "1",
    "labs": {
        "perf_lab": {
            "lab_path": "",
            "headerpath": "",
            "support_files": [],
            "solution": "",
            "dependencies": {
                "libraries": [],
                "req_software": []
            },
            "tests": []
        },
        "demo_lab": {
            "lab_path": "",
            "headerpath": "",
            "support_files": [],
            "solution": "",
            "dependencies": {
                "libraries": [],
                "req_software": []
            }  
        }
    }
}
